11.2 Single level approaches | Forecasting: Principles and Practice (3rd ed)
…
# Sum bottom-level forecasts to get top-level forecasts
fcasts_national <- fcasts_state |>
  summarise(value = sum(Trips), .mean = mean(value))

However, we want a more general approach that will work with all the forecasting methods discussed in this chapter. So we will use the reconcile() function to specify how we want to compute coherent forecasts.

tourism_states |>
  model(ets = ETS(Trips)) |>
  reconcile(bu = bottom_up(ets)) |>
  forecast()
#> # A fable: 144 x 5 [1Q]
#> # Key:     State, .model [18]
#>    State  .model Quarter
#>    <chr*> <chr>    <qtr>
#>  1 ACT    ets    2018 Q1
#>  2 ACT    ets    2018 Q2
#>  3 ACT    ets    2018 Q3
#>  4 ACT    ets    2018 Q4
#>  5 ACT    ets    2019 Q1
#>  6 ACT    ets    2019 Q2
#>  7 ACT    ets    2019 Q3
#>  8 ACT    ets    2019 Q4
#>  9 ACT    bu     2018 Q1
#> 10 ACT    bu     2018 Q2
#> # ℹ 134 more rows
#> # ℹ 2 more variables: Trips <dist>, .mean <dbl>
…
